…
>  # Step 1: Create the dataframe 
>  # Calculate the average cover and the number of quadrats for each species 
>  #average_plant_abundance <- lawn_cover %>% 
>   # group_by(species_name_cover) %>%  # Group data by species name 
>   # summarise( 
>    #  avg_cover = mean(cover_class, na.rm = TRUE),  # Calculate the average cover class 
>     # number_quadrats = n()  # Count the number of quadrats where species appear 
>    #) %>% 
>  #  arrange(-avg_cover)  # Sort by descending order of average cover 
>   
>  average_plant_abundance <- lawn_cover %>% group_by(species_name_cover) %>%  summarise(avg_cover = mean(cover_class, na.rm = TRUE),  number_quadrats = n()  ) %>% arrange(-avg_cover)   
>   
>  # View the dataframe 
>  print(average_plant_abundance) 
# A tibble: 57 × 3
   species_name_cover      avg_cover number_quadrats
   <chr>                       <dbl>           <int>
 1 Citrus sinensis              7                  2
 2 Cynodon dactylon             5.65              71
 3 Daucus sp                    5.5                6
 4 Stenotaphrum secundatum      5.22              18
 5 Lolium perenne               4.96              26
 6 Morus alba                   4.5                2
 7 Lolium arundinaceum          4.22               9
 8 <NA>                         4.05              23
 9 Unknown aster small          4                  3
10 Torilis nodosa               3.58              12
# ℹ 47 more rows
# ℹ Use `print(n = ...)` to see more rows
…
